{
  "payload": [
    { "id": 1, "subscription_id": 401, "is_active": true, "wait_for": 63 },
    { "id": 2, "subscription_id": 402, "is_active": true, "wait_for": 31 },
    { "id": 3, "subscription_id": 403, "is_active": true, "wait_for": 70 },
    { "id": 4, "subscription_id": 404, "is_active": false, "wait_for": 66 },
    { "id": 5, "subscription_id": 405, "is_active": true, "wait_for": 13 },
    { "id": 6, "subscription_id": 406, "is_active": false, "wait_for": 14 },
    { "id": 7, "subscription_id": 407, "is_active": false, "wait_for": 43 },
    { "id": 8, "subscription_id": 408, "is_active": false, "wait_for": 92 },
    { "id": 9, "subscription_id": 409, "is_active": true, "wait_for": 56 },
    { "id": 10, "subscription_id": 410, "is_active": false, "wait_for": 83 },
    { "id": 11, "subscription_id": 411, "is_active": true, "wait_for": 36 },
    { "id": 12, "subscription_id": 412, "is_active": false, "wait_for": 45 },
    { "id": 13, "subscription_id": 413, "is_active": false, "wait_for": 40 },
    { "id": 14, "subscription_id": 414, "is_active": false, "wait_for": 95 },
    { "id": 15, "subscription_id": 415, "is_active": true, "wait_for": 0 },
    { "id": 16, "subscription_id": 416, "is_active": false, "wait_for": 89 },
    { "id": 17, "subscription_id": 417, "is_active": false, "wait_for": 6 },
    { "id": 18, "subscription_id": 418, "is_active": false, "wait_for": 47 },
    { "id": 19, "subscription_id": 419, "is_active": true, "wait_for": 13 },
    { "id": 20, "subscription_id": 420, "is_active": false, "wait_for": 1 },
    { "id": 21, "subscription_id": 421, "is_active": true, "wait_for": 32 },
    { "id": 22, "subscription_id": 422, "is_active": true, "wait_for": 41 },
    { "id": 23, "subscription_id": 423, "is_active": true, "wait_for": 84 },
    { "id": 24, "subscription_id": 424, "is_active": true, "wait_for": 95 },
    { "id": 25, "subscription_id": 425, "is_active": false, "wait_for": 52 },
    { "id": 26, "subscription_id": 426, "is_active": false, "wait_for": 21 },
    { "id": 27, "subscription_id": 427, "is_active": false, "wait_for": 22 },
    { "id": 28, "subscription_id": 428, "is_active": false, "wait_for": 53 },
    { "id": 29, "subscription_id": 429, "is_active": true, "wait_for": 2 },
    { "id": 30, "subscription_id": 430, "is_active": true, "wait_for": 27 },
    { "id": 31, "subscription_id": 431, "is_active": false, "wait_for": 73 },
    { "id": 32, "subscription_id": 432, "is_active": true, "wait_for": 68 },
    { "id": 33, "subscription_id": 433, "is_active": false, "wait_for": 73 },
    { "id": 34, "subscription_id": 434, "is_active": false, "wait_for": 82 },
    { "id": 35, "subscription_id": 435, "is_active": true, "wait_for": 64 },
    { "id": 36, "subscription_id": 436, "is_active": true, "wait_for": 6 },
    { "id": 37, "subscription_id": 437, "is_active": false, "wait_for": 58 },
    { "id": 38, "subscription_id": 438, "is_active": true, "wait_for": 12 },
    { "id": 39, "subscription_id": 439, "is_active": false, "wait_for": 68 },
    { "id": 40, "subscription_id": 440, "is_active": true, "wait_for": 10 },
    { "id": 41, "subscription_id": 441, "is_active": true, "wait_for": 68 },
    { "id": 42, "subscription_id": 442, "is_active": false, "wait_for": 38 },
    { "id": 43, "subscription_id": 443, "is_active": true, "wait_for": 0 },
    { "id": 44, "subscription_id": 444, "is_active": false, "wait_for": 38 },
    { "id": 45, "subscription_id": 445, "is_active": true, "wait_for": 75 },
    { "id": 46, "subscription_id": 446, "is_active": false, "wait_for": 12 },
    { "id": 47, "subscription_id": 447, "is_active": true, "wait_for": 54 },
    { "id": 48, "subscription_id": 448, "is_active": false, "wait_for": 74 },
    { "id": 49, "subscription_id": 449, "is_active": false, "wait_for": 29 },
    { "id": 50, "subscription_id": 450, "is_active": true, "wait_for": 5 },
    { "id": 51, "subscription_id": 451, "is_active": false, "wait_for": 34 },
    { "id": 52, "subscription_id": 452, "is_active": true, "wait_for": 6 },
    { "id": 53, "subscription_id": 453, "is_active": true, "wait_for": 8 },
    { "id": 54, "subscription_id": 454, "is_active": true, "wait_for": 65 },
    { "id": 55, "subscription_id": 455, "is_active": false, "wait_for": 52 },
    { "id": 56, "subscription_id": 456, "is_active": false, "wait_for": 91 },
    { "id": 57, "subscription_id": 457, "is_active": false, "wait_for": 75 },
    { "id": 58, "subscription_id": 458, "is_active": true, "wait_for": 88 },
    { "id": 59, "subscription_id": 459, "is_active": false, "wait_for": 65 },
    { "id": 60, "subscription_id": 460, "is_active": false, "wait_for": 52 },
    { "id": 61, "subscription_id": 461, "is_active": true, "wait_for": 32 },
    { "id": 62, "subscription_id": 462, "is_active": true, "wait_for": 99 },
    { "id": 63, "subscription_id": 463, "is_active": false, "wait_for": 5 },
    { "id": 64, "subscription_id": 464, "is_active": false, "wait_for": 100 },
    { "id": 65, "subscription_id": 465, "is_active": false, "wait_for": 20 },
    { "id": 66, "subscription_id": 466, "is_active": false, "wait_for": 14 },
    { "id": 67, "subscription_id": 467, "is_active": false, "wait_for": 57 },
    { "id": 68, "subscription_id": 468, "is_active": false, "wait_for": 72 },
    { "id": 69, "subscription_id": 469, "is_active": false, "wait_for": 22 },
    { "id": 70, "subscription_id": 470, "is_active": false, "wait_for": 13 },
    { "id": 71, "subscription_id": 471, "is_active": false, "wait_for": 28 },
    { "id": 72, "subscription_id": 472, "is_active": false, "wait_for": 31 },
    { "id": 73, "subscription_id": 473, "is_active": true, "wait_for": 75 },
    { "id": 74, "subscription_id": 474, "is_active": true, "wait_for": 25 },
    { "id": 75, "subscription_id": 475, "is_active": false, "wait_for": 54 },
    { "id": 76, "subscription_id": 476, "is_active": true, "wait_for": 87 },
    { "id": 77, "subscription_id": 477, "is_active": true, "wait_for": 63 },
    { "id": 78, "subscription_id": 478, "is_active": true, "wait_for": 93 },
    { "id": 79, "subscription_id": 479, "is_active": false, "wait_for": 24 },
    { "id": 80, "subscription_id": 480, "is_active": true, "wait_for": 85 },
    { "id": 81, "subscription_id": 481, "is_active": true, "wait_for": 50 },
    { "id": 82, "subscription_id": 482, "is_active": true, "wait_for": 89 },
    { "id": 83, "subscription_id": 483, "is_active": false, "wait_for": 25 },
    { "id": 84, "subscription_id": 484, "is_active": true, "wait_for": 87 },
    { "id": 85, "subscription_id": 485, "is_active": false, "wait_for": 47 },
    { "id": 86, "subscription_id": 486, "is_active": true, "wait_for": 33 },
    { "id": 87, "subscription_id": 487, "is_active": true, "wait_for": 19 },
    { "id": 88, "subscription_id": 488, "is_active": true, "wait_for": 47 },
    { "id": 89, "subscription_id": 489, "is_active": false, "wait_for": 35 },
    { "id": 90, "subscription_id": 490, "is_active": false, "wait_for": 74 },
    { "id": 91, "subscription_id": 491, "is_active": false, "wait_for": 78 },
    { "id": 92, "subscription_id": 492, "is_active": false, "wait_for": 34 },
    { "id": 93, "subscription_id": 493, "is_active": true, "wait_for": 29 },
    { "id": 94, "subscription_id": 494, "is_active": false, "wait_for": 60 },
    { "id": 95, "subscription_id": 495, "is_active": true, "wait_for": 98 },
    { "id": 96, "subscription_id": 496, "is_active": false, "wait_for": 3 },
    { "id": 97, "subscription_id": 497, "is_active": true, "wait_for": 15 },
    { "id": 98, "subscription_id": 498, "is_active": false, "wait_for": 43 },
    { "id": 99, "subscription_id": 499, "is_active": true, "wait_for": 83 },
    { "id": 100, "subscription_id": 500, "is_active": true, "wait_for": 34 }
  ]
}
