{
  "payload": [
    { "id": 1, "subscriber_id": 1, "relay_id": 1002 },
    { "id": 2, "subscriber_id": 1, "relay_id": 556 },
    { "id": 3, "subscriber_id": 1, "relay_id": 519 },
    { "id": 4, "subscriber_id": 1, "relay_id": 815 },
    { "id": 5, "subscriber_id": 1, "relay_id": 577 },
    { "id": 6, "subscriber_id": 1, "relay_id": 80 },
    { "id": 7, "subscriber_id": 1, "relay_id": 312 },
    { "id": 8, "subscriber_id": 1, "relay_id": 900 },
    { "id": 9, "subscriber_id": 1, "relay_id": 440 },
    { "id": 10, "subscriber_id": 1, "relay_id": 561 },
    { "id": 11, "subscriber_id": 411, "relay_id": 118 },
    { "id": 12, "subscriber_id": 427, "relay_id": 266 },
    { "id": 13, "subscriber_id": 499, "relay_id": 46 },
    { "id": 14, "subscriber_id": 478, "relay_id": 369 },
    { "id": 15, "subscriber_id": 724, "relay_id": 650 },
    { "id": 16, "subscriber_id": 100, "relay_id": 610 },
    { "id": 17, "subscriber_id": 831, "relay_id": 782 },
    { "id": 18, "subscriber_id": 614, "relay_id": 95 },
    { "id": 19, "subscriber_id": 624, "relay_id": 910 },
    { "id": 20, "subscriber_id": 225, "relay_id": 27 },
    { "id": 21, "subscriber_id": 746, "relay_id": 812 },
    { "id": 22, "subscriber_id": 251, "relay_id": 404 },
    { "id": 23, "subscriber_id": 259, "relay_id": 430 },
    { "id": 24, "subscriber_id": 394, "relay_id": 517 },
    { "id": 25, "subscriber_id": 564, "relay_id": 531 },
    { "id": 26, "subscriber_id": 270, "relay_id": 542 },
    { "id": 27, "subscriber_id": 269, "relay_id": 892 },
    { "id": 28, "subscriber_id": 854, "relay_id": 612 },
    { "id": 29, "subscriber_id": 311, "relay_id": 955 },
    { "id": 30, "subscriber_id": 129, "relay_id": 536 },
    { "id": 31, "subscriber_id": 587, "relay_id": 604 },
    { "id": 32, "subscriber_id": 459, "relay_id": 603 },
    { "id": 33, "subscriber_id": 875, "relay_id": 277 },
    { "id": 34, "subscriber_id": 676, "relay_id": 933 },
    { "id": 35, "subscriber_id": 22, "relay_id": 694 },
    { "id": 36, "subscriber_id": 443, "relay_id": 822 },
    { "id": 37, "subscriber_id": 80, "relay_id": 526 },
    { "id": 38, "subscriber_id": 791, "relay_id": 546 },
    { "id": 39, "subscriber_id": 253, "relay_id": 741 },
    { "id": 40, "subscriber_id": 256, "relay_id": 429 },
    { "id": 41, "subscriber_id": 341, "relay_id": 232 },
    { "id": 42, "subscriber_id": 131, "relay_id": 376 },
    { "id": 43, "subscriber_id": 646, "relay_id": 551 },
    { "id": 44, "subscriber_id": 165, "relay_id": 562 },
    { "id": 45, "subscriber_id": 33, "relay_id": 662 },
    { "id": 46, "subscriber_id": 701, "relay_id": 809 },
    { "id": 47, "subscriber_id": 589, "relay_id": 868 },
    { "id": 48, "subscriber_id": 402, "relay_id": 47 },
    { "id": 49, "subscriber_id": 824, "relay_id": 608 },
    { "id": 50, "subscriber_id": 553, "relay_id": 95 },
    { "id": 51, "subscriber_id": 777, "relay_id": 763 },
    { "id": 52, "subscriber_id": 484, "relay_id": 895 },
    { "id": 53, "subscriber_id": 956, "relay_id": 861 },
    { "id": 54, "subscriber_id": 320, "relay_id": 258 },
    { "id": 55, "subscriber_id": 43, "relay_id": 671 },
    { "id": 56, "subscriber_id": 687, "relay_id": 820 },
    { "id": 57, "subscriber_id": 857, "relay_id": 441 },
    { "id": 58, "subscriber_id": 682, "relay_id": 260 },
    { "id": 59, "subscriber_id": 282, "relay_id": 198 },
    { "id": 60, "subscriber_id": 569, "relay_id": 957 },
    { "id": 61, "subscriber_id": 575, "relay_id": 843 },
    { "id": 62, "subscriber_id": 268, "relay_id": 14 },
    { "id": 63, "subscriber_id": 176, "relay_id": 104 },
    { "id": 64, "subscriber_id": 503, "relay_id": 516 },
    { "id": 65, "subscriber_id": 737, "relay_id": 237 },
    { "id": 66, "subscriber_id": 131, "relay_id": 424 },
    { "id": 67, "subscriber_id": 203, "relay_id": 710 },
    { "id": 68, "subscriber_id": 651, "relay_id": 810 },
    { "id": 69, "subscriber_id": 443, "relay_id": 876 },
    { "id": 70, "subscriber_id": 280, "relay_id": 173 },
    { "id": 71, "subscriber_id": 365, "relay_id": 431 },
    { "id": 72, "subscriber_id": 466, "relay_id": 346 },
    { "id": 73, "subscriber_id": 60, "relay_id": 113 },
    { "id": 74, "subscriber_id": 190, "relay_id": 400 },
    { "id": 75, "subscriber_id": 103, "relay_id": 684 },
    { "id": 76, "subscriber_id": 327, "relay_id": 138 },
    { "id": 77, "subscriber_id": 239, "relay_id": 247 },
    { "id": 78, "subscriber_id": 414, "relay_id": 745 },
    { "id": 79, "subscriber_id": 176, "relay_id": 365 },
    { "id": 80, "subscriber_id": 560, "relay_id": 865 },
    { "id": 81, "subscriber_id": 91, "relay_id": 773 },
    { "id": 82, "subscriber_id": 507, "relay_id": 433 },
    { "id": 83, "subscriber_id": 545, "relay_id": 451 },
    { "id": 84, "subscriber_id": 323, "relay_id": 374 },
    { "id": 85, "subscriber_id": 928, "relay_id": 461 },
    { "id": 86, "subscriber_id": 818, "relay_id": 63 },
    { "id": 87, "subscriber_id": 841, "relay_id": 32 },
    { "id": 88, "subscriber_id": 383, "relay_id": 720 },
    { "id": 89, "subscriber_id": 105, "relay_id": 862 },
    { "id": 90, "subscriber_id": 104, "relay_id": 979 },
    { "id": 91, "subscriber_id": 298, "relay_id": 850 },
    { "id": 92, "subscriber_id": 270, "relay_id": 425 },
    { "id": 93, "subscriber_id": 271, "relay_id": 945 },
    { "id": 94, "subscriber_id": 130, "relay_id": 549 },
    { "id": 95, "subscriber_id": 427, "relay_id": 646 },
    { "id": 96, "subscriber_id": 600, "relay_id": 874 },
    { "id": 97, "subscriber_id": 872, "relay_id": 926 },
    { "id": 98, "subscriber_id": 549, "relay_id": 805 },
    { "id": 99, "subscriber_id": 731, "relay_id": 647 },
    { "id": 100, "subscriber_id": 1, "relay_id": 2 },
    { "id": 101, "subscriber_id": 1, "relay_id": 584 },
    { "id": 102, "subscriber_id": 1, "relay_id": 155 },
    { "id": 103, "subscriber_id": 1, "relay_id": 794 },
    { "id": 104, "subscriber_id": 1, "relay_id": 4 },
    { "id": 105, "subscriber_id": 1, "relay_id": 700 },
    { "id": 106, "subscriber_id": 1, "relay_id": 87 },
    { "id": 107, "subscriber_id": 1, "relay_id": 742 },
    { "id": 108, "subscriber_id": 1, "relay_id": 648 },
    { "id": 109, "subscriber_id": 1, "relay_id": 789 },
    { "id": 110, "subscriber_id": 1, "relay_id": 895 },
    { "id": 111, "subscriber_id": 939, "relay_id": 812 },
    { "id": 112, "subscriber_id": 945, "relay_id": 233 },
    { "id": 113, "subscriber_id": 41, "relay_id": 624 },
    { "id": 114, "subscriber_id": 663, "relay_id": 914 },
    { "id": 115, "subscriber_id": 207, "relay_id": 247 },
    { "id": 116, "subscriber_id": 700, "relay_id": 923 },
    { "id": 117, "subscriber_id": 52, "relay_id": 189 },
    { "id": 118, "subscriber_id": 287, "relay_id": 556 },
    { "id": 119, "subscriber_id": 108, "relay_id": 440 },
    { "id": 120, "subscriber_id": 972, "relay_id": 548 },
    { "id": 121, "subscriber_id": 190, "relay_id": 850 },
    { "id": 122, "subscriber_id": 658, "relay_id": 114 },
    { "id": 123, "subscriber_id": 928, "relay_id": 842 },
    { "id": 124, "subscriber_id": 630, "relay_id": 527 },
    { "id": 125, "subscriber_id": 209, "relay_id": 460 },
    { "id": 126, "subscriber_id": 923, "relay_id": 715 },
    { "id": 127, "subscriber_id": 701, "relay_id": 585 },
    { "id": 128, "subscriber_id": 710, "relay_id": 191 },
    { "id": 129, "subscriber_id": 364, "relay_id": 120 },
    { "id": 130, "subscriber_id": 62, "relay_id": 572 },
    { "id": 131, "subscriber_id": 268, "relay_id": 816 },
    { "id": 132, "subscriber_id": 443, "relay_id": 41 },
    { "id": 133, "subscriber_id": 369, "relay_id": 767 },
    { "id": 134, "subscriber_id": 769, "relay_id": 205 },
    { "id": 135, "subscriber_id": 127, "relay_id": 450 },
    { "id": 136, "subscriber_id": 353, "relay_id": 112 },
    { "id": 137, "subscriber_id": 431, "relay_id": 198 },
    { "id": 138, "subscriber_id": 40, "relay_id": 81 },
    { "id": 139, "subscriber_id": 16, "relay_id": 77 },
    { "id": 140, "subscriber_id": 532, "relay_id": 864 },
    { "id": 141, "subscriber_id": 250, "relay_id": 709 },
    { "id": 142, "subscriber_id": 359, "relay_id": 494 },
    { "id": 143, "subscriber_id": 883, "relay_id": 867 },
    { "id": 144, "subscriber_id": 629, "relay_id": 473 },
    { "id": 145, "subscriber_id": 892, "relay_id": 984 },
    { "id": 146, "subscriber_id": 620, "relay_id": 547 },
    { "id": 147, "subscriber_id": 330, "relay_id": 312 },
    { "id": 148, "subscriber_id": 30, "relay_id": 294 },
    { "id": 149, "subscriber_id": 339, "relay_id": 838 },
    { "id": 150, "subscriber_id": 799, "relay_id": 958 },
    { "id": 151, "subscriber_id": 907, "relay_id": 301 },
    { "id": 152, "subscriber_id": 949, "relay_id": 695 },
    { "id": 153, "subscriber_id": 813, "relay_id": 215 },
    { "id": 154, "subscriber_id": 620, "relay_id": 974 },
    { "id": 155, "subscriber_id": 581, "relay_id": 242 },
    { "id": 156, "subscriber_id": 931, "relay_id": 400 },
    { "id": 157, "subscriber_id": 390, "relay_id": 550 },
    { "id": 158, "subscriber_id": 941, "relay_id": 228 },
    { "id": 159, "subscriber_id": 315, "relay_id": 566 },
    { "id": 160, "subscriber_id": 24, "relay_id": 729 },
    { "id": 161, "subscriber_id": 530, "relay_id": 443 },
    { "id": 162, "subscriber_id": 554, "relay_id": 615 },
    { "id": 163, "subscriber_id": 491, "relay_id": 289 },
    { "id": 164, "subscriber_id": 889, "relay_id": 676 },
    { "id": 165, "subscriber_id": 29, "relay_id": 164 },
    { "id": 166, "subscriber_id": 791, "relay_id": 552 },
    { "id": 167, "subscriber_id": 335, "relay_id": 287 },
    { "id": 168, "subscriber_id": 722, "relay_id": 78 },
    { "id": 169, "subscriber_id": 54, "relay_id": 6 },
    { "id": 170, "subscriber_id": 949, "relay_id": 640 },
    { "id": 171, "subscriber_id": 288, "relay_id": 596 },
    { "id": 172, "subscriber_id": 175, "relay_id": 220 },
    { "id": 173, "subscriber_id": 771, "relay_id": 565 },
    { "id": 174, "subscriber_id": 559, "relay_id": 381 },
    { "id": 175, "subscriber_id": 878, "relay_id": 104 },
    { "id": 176, "subscriber_id": 468, "relay_id": 259 },
    { "id": 177, "subscriber_id": 422, "relay_id": 617 },
    { "id": 178, "subscriber_id": 219, "relay_id": 969 },
    { "id": 179, "subscriber_id": 291, "relay_id": 699 },
    { "id": 180, "subscriber_id": 258, "relay_id": 482 },
    { "id": 181, "subscriber_id": 575, "relay_id": 594 },
    { "id": 182, "subscriber_id": 409, "relay_id": 792 },
    { "id": 183, "subscriber_id": 30, "relay_id": 632 },
    { "id": 184, "subscriber_id": 232, "relay_id": 500 },
    { "id": 185, "subscriber_id": 85, "relay_id": 737 },
    { "id": 186, "subscriber_id": 336, "relay_id": 39 },
    { "id": 187, "subscriber_id": 97, "relay_id": 421 },
    { "id": 188, "subscriber_id": 719, "relay_id": 913 },
    { "id": 189, "subscriber_id": 568, "relay_id": 665 },
    { "id": 190, "subscriber_id": 313, "relay_id": 586 },
    { "id": 191, "subscriber_id": 536, "relay_id": 384 },
    { "id": 192, "subscriber_id": 620, "relay_id": 456 },
    { "id": 193, "subscriber_id": 301, "relay_id": 914 },
    { "id": 194, "subscriber_id": 355, "relay_id": 450 },
    { "id": 195, "subscriber_id": 393, "relay_id": 876 },
    { "id": 196, "subscriber_id": 991, "relay_id": 139 },
    { "id": 197, "subscriber_id": 95, "relay_id": 553 },
    { "id": 198, "subscriber_id": 723, "relay_id": 879 },
    { "id": 199, "subscriber_id": 218, "relay_id": 728 },
    { "id": 200, "subscriber_id": 1, "relay_id": 190 },
    { "id": 201, "subscriber_id": 1, "relay_id": 951 },
    { "id": 202, "subscriber_id": 1, "relay_id": 824 },
    { "id": 203, "subscriber_id": 1, "relay_id": 990 },
    { "id": 204, "subscriber_id": 1, "relay_id": 198 },
    { "id": 205, "subscriber_id": 1, "relay_id": 946 },
    { "id": 206, "subscriber_id": 1, "relay_id": 920 },
    { "id": 207, "subscriber_id": 1, "relay_id": 539 },
    { "id": 208, "subscriber_id": 1, "relay_id": 528 },
    { "id": 209, "subscriber_id": 1, "relay_id": 258 },
    { "id": 210, "subscriber_id": 1, "relay_id": 413 },
    { "id": 211, "subscriber_id": 139, "relay_id": 456 },
    { "id": 212, "subscriber_id": 182, "relay_id": 143 },
    { "id": 213, "subscriber_id": 224, "relay_id": 886 },
    { "id": 214, "subscriber_id": 617, "relay_id": 4 },
    { "id": 215, "subscriber_id": 400, "relay_id": 362 },
    { "id": 216, "subscriber_id": 103, "relay_id": 284 },
    { "id": 217, "subscriber_id": 399, "relay_id": 861 },
    { "id": 218, "subscriber_id": 723, "relay_id": 257 },
    { "id": 219, "subscriber_id": 352, "relay_id": 11 },
    { "id": 220, "subscriber_id": 819, "relay_id": 770 },
    { "id": 221, "subscriber_id": 708, "relay_id": 604 },
    { "id": 222, "subscriber_id": 101, "relay_id": 69 },
    { "id": 223, "subscriber_id": 272, "relay_id": 333 },
    { "id": 224, "subscriber_id": 330, "relay_id": 639 },
    { "id": 225, "subscriber_id": 305, "relay_id": 370 },
    { "id": 226, "subscriber_id": 58, "relay_id": 838 },
    { "id": 227, "subscriber_id": 476, "relay_id": 722 },
    { "id": 228, "subscriber_id": 286, "relay_id": 985 },
    { "id": 229, "subscriber_id": 113, "relay_id": 504 },
    { "id": 230, "subscriber_id": 263, "relay_id": 544 },
    { "id": 231, "subscriber_id": 306, "relay_id": 962 },
    { "id": 232, "subscriber_id": 353, "relay_id": 990 },
    { "id": 233, "subscriber_id": 22, "relay_id": 868 },
    { "id": 234, "subscriber_id": 838, "relay_id": 798 },
    { "id": 235, "subscriber_id": 393, "relay_id": 727 },
    { "id": 236, "subscriber_id": 854, "relay_id": 156 },
    { "id": 237, "subscriber_id": 265, "relay_id": 566 },
    { "id": 238, "subscriber_id": 82, "relay_id": 295 },
    { "id": 239, "subscriber_id": 673, "relay_id": 931 },
    { "id": 240, "subscriber_id": 534, "relay_id": 698 },
    { "id": 241, "subscriber_id": 49, "relay_id": 122 },
    { "id": 242, "subscriber_id": 558, "relay_id": 384 },
    { "id": 243, "subscriber_id": 938, "relay_id": 708 },
    { "id": 244, "subscriber_id": 443, "relay_id": 634 },
    { "id": 245, "subscriber_id": 831, "relay_id": 502 },
    { "id": 246, "subscriber_id": 904, "relay_id": 356 },
    { "id": 247, "subscriber_id": 14, "relay_id": 572 },
    { "id": 248, "subscriber_id": 99, "relay_id": 921 },
    { "id": 249, "subscriber_id": 188, "relay_id": 88 },
    { "id": 250, "subscriber_id": 862, "relay_id": 384 },
    { "id": 251, "subscriber_id": 447, "relay_id": 379 },
    { "id": 252, "subscriber_id": 667, "relay_id": 211 },
    { "id": 253, "subscriber_id": 379, "relay_id": 230 },
    { "id": 254, "subscriber_id": 184, "relay_id": 486 },
    { "id": 255, "subscriber_id": 885, "relay_id": 465 },
    { "id": 256, "subscriber_id": 667, "relay_id": 860 },
    { "id": 257, "subscriber_id": 22, "relay_id": 2 },
    { "id": 258, "subscriber_id": 915, "relay_id": 913 },
    { "id": 259, "subscriber_id": 450, "relay_id": 207 },
    { "id": 260, "subscriber_id": 46, "relay_id": 156 },
    { "id": 261, "subscriber_id": 78, "relay_id": 472 },
    { "id": 262, "subscriber_id": 326, "relay_id": 183 },
    { "id": 263, "subscriber_id": 589, "relay_id": 750 },
    { "id": 264, "subscriber_id": 827, "relay_id": 345 },
    { "id": 265, "subscriber_id": 754, "relay_id": 469 },
    { "id": 266, "subscriber_id": 96, "relay_id": 963 },
    { "id": 267, "subscriber_id": 478, "relay_id": 862 },
    { "id": 268, "subscriber_id": 223, "relay_id": 393 },
    { "id": 269, "subscriber_id": 165, "relay_id": 347 },
    { "id": 270, "subscriber_id": 632, "relay_id": 732 },
    { "id": 271, "subscriber_id": 559, "relay_id": 667 },
    { "id": 272, "subscriber_id": 221, "relay_id": 748 },
    { "id": 273, "subscriber_id": 608, "relay_id": 310 },
    { "id": 274, "subscriber_id": 147, "relay_id": 839 },
    { "id": 275, "subscriber_id": 336, "relay_id": 376 },
    { "id": 276, "subscriber_id": 989, "relay_id": 677 },
    { "id": 277, "subscriber_id": 502, "relay_id": 608 },
    { "id": 278, "subscriber_id": 666, "relay_id": 245 },
    { "id": 279, "subscriber_id": 669, "relay_id": 875 },
    { "id": 280, "subscriber_id": 247, "relay_id": 23 },
    { "id": 281, "subscriber_id": 324, "relay_id": 100 },
    { "id": 282, "subscriber_id": 207, "relay_id": 786 },
    { "id": 283, "subscriber_id": 123, "relay_id": 317 },
    { "id": 284, "subscriber_id": 587, "relay_id": 599 },
    { "id": 285, "subscriber_id": 458, "relay_id": 634 },
    { "id": 286, "subscriber_id": 439, "relay_id": 301 },
    { "id": 287, "subscriber_id": 826, "relay_id": 74 },
    { "id": 288, "subscriber_id": 40, "relay_id": 81 },
    { "id": 289, "subscriber_id": 667, "relay_id": 456 },
    { "id": 290, "subscriber_id": 314, "relay_id": 904 },
    { "id": 291, "subscriber_id": 757, "relay_id": 179 },
    { "id": 292, "subscriber_id": 54, "relay_id": 466 },
    { "id": 293, "subscriber_id": 920, "relay_id": 581 },
    { "id": 294, "subscriber_id": 646, "relay_id": 772 },
    { "id": 295, "subscriber_id": 2, "relay_id": 943 },
    { "id": 296, "subscriber_id": 906, "relay_id": 430 },
    { "id": 297, "subscriber_id": 939, "relay_id": 889 },
    { "id": 298, "subscriber_id": 437, "relay_id": 546 },
    { "id": 299, "subscriber_id": 550, "relay_id": 56 },
    { "id": 300, "subscriber_id": 1, "relay_id": 787 },
    { "id": 301, "subscriber_id": 1, "relay_id": 845 },
    { "id": 302, "subscriber_id": 1, "relay_id": 690 },
    { "id": 303, "subscriber_id": 1, "relay_id": 512 },
    { "id": 304, "subscriber_id": 1, "relay_id": 283 },
    { "id": 305, "subscriber_id": 1, "relay_id": 933 },
    { "id": 306, "subscriber_id": 1, "relay_id": 612 },
    { "id": 307, "subscriber_id": 1, "relay_id": 693 },
    { "id": 308, "subscriber_id": 1, "relay_id": 553 },
    { "id": 309, "subscriber_id": 1, "relay_id": 858 },
    { "id": 310, "subscriber_id": 1, "relay_id": 152 },
    { "id": 311, "subscriber_id": 1, "relay_id": 885 },
    { "id": 312, "subscriber_id": 284, "relay_id": 632 },
    { "id": 313, "subscriber_id": 857, "relay_id": 70 },
    { "id": 314, "subscriber_id": 890, "relay_id": 496 },
    { "id": 315, "subscriber_id": 579, "relay_id": 779 },
    { "id": 316, "subscriber_id": 919, "relay_id": 612 },
    { "id": 317, "subscriber_id": 945, "relay_id": 495 },
    { "id": 318, "subscriber_id": 335, "relay_id": 158 },
    { "id": 319, "subscriber_id": 721, "relay_id": 582 },
    { "id": 320, "subscriber_id": 381, "relay_id": 699 },
    { "id": 321, "subscriber_id": 109, "relay_id": 582 },
    { "id": 322, "subscriber_id": 93, "relay_id": 732 },
    { "id": 323, "subscriber_id": 315, "relay_id": 970 },
    { "id": 324, "subscriber_id": 836, "relay_id": 71 },
    { "id": 325, "subscriber_id": 472, "relay_id": 532 },
    { "id": 326, "subscriber_id": 323, "relay_id": 404 },
    { "id": 327, "subscriber_id": 527, "relay_id": 262 },
    { "id": 328, "subscriber_id": 993, "relay_id": 574 },
    { "id": 329, "subscriber_id": 836, "relay_id": 91 },
    { "id": 330, "subscriber_id": 411, "relay_id": 427 },
    { "id": 331, "subscriber_id": 375, "relay_id": 8 },
    { "id": 332, "subscriber_id": 599, "relay_id": 198 },
    { "id": 333, "subscriber_id": 286, "relay_id": 9 },
    { "id": 334, "subscriber_id": 427, "relay_id": 778 },
    { "id": 335, "subscriber_id": 965, "relay_id": 389 },
    { "id": 336, "subscriber_id": 97, "relay_id": 273 },
    { "id": 337, "subscriber_id": 265, "relay_id": 889 },
    { "id": 338, "subscriber_id": 642, "relay_id": 385 },
    { "id": 339, "subscriber_id": 193, "relay_id": 641 },
    { "id": 340, "subscriber_id": 260, "relay_id": 116 },
    { "id": 341, "subscriber_id": 960, "relay_id": 387 },
    { "id": 342, "subscriber_id": 688, "relay_id": 986 },
    { "id": 343, "subscriber_id": 513, "relay_id": 890 },
    { "id": 344, "subscriber_id": 585, "relay_id": 699 },
    { "id": 345, "subscriber_id": 512, "relay_id": 681 },
    { "id": 346, "subscriber_id": 764, "relay_id": 616 },
    { "id": 347, "subscriber_id": 507, "relay_id": 853 },
    { "id": 348, "subscriber_id": 481, "relay_id": 413 },
    { "id": 349, "subscriber_id": 978, "relay_id": 978 },
    { "id": 350, "subscriber_id": 371, "relay_id": 769 },
    { "id": 351, "subscriber_id": 682, "relay_id": 477 },
    { "id": 352, "subscriber_id": 826, "relay_id": 383 },
    { "id": 353, "subscriber_id": 693, "relay_id": 308 },
    { "id": 354, "subscriber_id": 417, "relay_id": 357 },
    { "id": 355, "subscriber_id": 727, "relay_id": 180 },
    { "id": 356, "subscriber_id": 788, "relay_id": 691 },
    { "id": 357, "subscriber_id": 343, "relay_id": 93 },
    { "id": 358, "subscriber_id": 119, "relay_id": 405 },
    { "id": 359, "subscriber_id": 721, "relay_id": 788 },
    { "id": 360, "subscriber_id": 596, "relay_id": 717 },
    { "id": 361, "subscriber_id": 198, "relay_id": 781 },
    { "id": 362, "subscriber_id": 938, "relay_id": 588 },
    { "id": 363, "subscriber_id": 384, "relay_id": 74 },
    { "id": 364, "subscriber_id": 392, "relay_id": 708 },
    { "id": 365, "subscriber_id": 173, "relay_id": 408 },
    { "id": 366, "subscriber_id": 482, "relay_id": 487 },
    { "id": 367, "subscriber_id": 294, "relay_id": 759 },
    { "id": 368, "subscriber_id": 555, "relay_id": 418 },
    { "id": 369, "subscriber_id": 552, "relay_id": 73 },
    { "id": 370, "subscriber_id": 102, "relay_id": 725 },
    { "id": 371, "subscriber_id": 524, "relay_id": 120 },
    { "id": 372, "subscriber_id": 211, "relay_id": 706 },
    { "id": 373, "subscriber_id": 148, "relay_id": 382 },
    { "id": 374, "subscriber_id": 994, "relay_id": 597 },
    { "id": 375, "subscriber_id": 460, "relay_id": 458 },
    { "id": 376, "subscriber_id": 825, "relay_id": 876 },
    { "id": 377, "subscriber_id": 930, "relay_id": 870 },
    { "id": 378, "subscriber_id": 616, "relay_id": 123 },
    { "id": 379, "subscriber_id": 195, "relay_id": 29 },
    { "id": 380, "subscriber_id": 166, "relay_id": 686 },
    { "id": 381, "subscriber_id": 964, "relay_id": 50 },
    { "id": 382, "subscriber_id": 46, "relay_id": 194 },
    { "id": 383, "subscriber_id": 701, "relay_id": 208 },
    { "id": 384, "subscriber_id": 555, "relay_id": 46 },
    { "id": 385, "subscriber_id": 139, "relay_id": 846 },
    { "id": 386, "subscriber_id": 126, "relay_id": 872 },
    { "id": 387, "subscriber_id": 162, "relay_id": 122 },
    { "id": 388, "subscriber_id": 233, "relay_id": 74 },
    { "id": 389, "subscriber_id": 405, "relay_id": 179 },
    { "id": 390, "subscriber_id": 705, "relay_id": 385 },
    { "id": 391, "subscriber_id": 570, "relay_id": 5 },
    { "id": 392, "subscriber_id": 937, "relay_id": 463 },
    { "id": 393, "subscriber_id": 524, "relay_id": 584 },
    { "id": 394, "subscriber_id": 634, "relay_id": 717 },
    { "id": 395, "subscriber_id": 816, "relay_id": 857 },
    { "id": 396, "subscriber_id": 984, "relay_id": 765 },
    { "id": 397, "subscriber_id": 301, "relay_id": 563 },
    { "id": 398, "subscriber_id": 436, "relay_id": 242 },
    { "id": 399, "subscriber_id": 447, "relay_id": 573 },
    { "id": 400, "subscriber_id": 1, "relay_id": 30 },
    { "id": 401, "subscriber_id": 1, "relay_id": 13 },
    { "id": 402, "subscriber_id": 1, "relay_id": 140 },
    { "id": 403, "subscriber_id": 1, "relay_id": 204 },
    { "id": 404, "subscriber_id": 1, "relay_id": 428 },
    { "id": 405, "subscriber_id": 1, "relay_id": 356 },
    { "id": 406, "subscriber_id": 1, "relay_id": 860 },
    { "id": 407, "subscriber_id": 1, "relay_id": 714 },
    { "id": 408, "subscriber_id": 1, "relay_id": 987 },
    { "id": 409, "subscriber_id": 1, "relay_id": 20 },
    { "id": 410, "subscriber_id": 1, "relay_id": 983 },
    { "id": 411, "subscriber_id": 766, "relay_id": 930 },
    { "id": 412, "subscriber_id": 359, "relay_id": 810 },
    { "id": 413, "subscriber_id": 225, "relay_id": 681 },
    { "id": 414, "subscriber_id": 608, "relay_id": 693 },
    { "id": 415, "subscriber_id": 386, "relay_id": 734 },
    { "id": 416, "subscriber_id": 225, "relay_id": 833 },
    { "id": 417, "subscriber_id": 844, "relay_id": 187 },
    { "id": 418, "subscriber_id": 975, "relay_id": 473 },
    { "id": 419, "subscriber_id": 324, "relay_id": 454 },
    { "id": 420, "subscriber_id": 762, "relay_id": 873 },
    { "id": 421, "subscriber_id": 616, "relay_id": 630 },
    { "id": 422, "subscriber_id": 275, "relay_id": 77 },
    { "id": 423, "subscriber_id": 384, "relay_id": 714 },
    { "id": 424, "subscriber_id": 760, "relay_id": 750 },
    { "id": 425, "subscriber_id": 874, "relay_id": 882 },
    { "id": 426, "subscriber_id": 881, "relay_id": 252 },
    { "id": 427, "subscriber_id": 182, "relay_id": 475 },
    { "id": 428, "subscriber_id": 330, "relay_id": 570 },
    { "id": 429, "subscriber_id": 62, "relay_id": 86 },
    { "id": 430, "subscriber_id": 81, "relay_id": 506 },
    { "id": 431, "subscriber_id": 15, "relay_id": 48 },
    { "id": 432, "subscriber_id": 198, "relay_id": 831 },
    { "id": 433, "subscriber_id": 535, "relay_id": 178 },
    { "id": 434, "subscriber_id": 698, "relay_id": 127 },
    { "id": 435, "subscriber_id": 826, "relay_id": 716 },
    { "id": 436, "subscriber_id": 527, "relay_id": 253 },
    { "id": 437, "subscriber_id": 131, "relay_id": 579 },
    { "id": 438, "subscriber_id": 632, "relay_id": 13 },
    { "id": 439, "subscriber_id": 583, "relay_id": 910 },
    { "id": 440, "subscriber_id": 718, "relay_id": 841 },
    { "id": 441, "subscriber_id": 355, "relay_id": 794 },
    { "id": 442, "subscriber_id": 195, "relay_id": 597 },
    { "id": 443, "subscriber_id": 808, "relay_id": 999 },
    { "id": 444, "subscriber_id": 92, "relay_id": 58 },
    { "id": 445, "subscriber_id": 934, "relay_id": 342 },
    { "id": 446, "subscriber_id": 354, "relay_id": 564 },
    { "id": 447, "subscriber_id": 473, "relay_id": 537 },
    { "id": 448, "subscriber_id": 947, "relay_id": 303 },
    { "id": 449, "subscriber_id": 6, "relay_id": 210 },
    { "id": 450, "subscriber_id": 457, "relay_id": 587 },
    { "id": 451, "subscriber_id": 705, "relay_id": 955 },
    { "id": 452, "subscriber_id": 44, "relay_id": 973 },
    { "id": 453, "subscriber_id": 671, "relay_id": 31 },
    { "id": 454, "subscriber_id": 389, "relay_id": 929 },
    { "id": 455, "subscriber_id": 399, "relay_id": 43 },
    { "id": 456, "subscriber_id": 112, "relay_id": 516 },
    { "id": 457, "subscriber_id": 821, "relay_id": 409 },
    { "id": 458, "subscriber_id": 247, "relay_id": 281 },
    { "id": 459, "subscriber_id": 672, "relay_id": 706 },
    { "id": 460, "subscriber_id": 81, "relay_id": 672 },
    { "id": 461, "subscriber_id": 648, "relay_id": 380 },
    { "id": 462, "subscriber_id": 221, "relay_id": 137 },
    { "id": 463, "subscriber_id": 493, "relay_id": 499 },
    { "id": 464, "subscriber_id": 790, "relay_id": 530 },
    { "id": 465, "subscriber_id": 194, "relay_id": 90 },
    { "id": 466, "subscriber_id": 267, "relay_id": 758 },
    { "id": 467, "subscriber_id": 691, "relay_id": 261 },
    { "id": 468, "subscriber_id": 123, "relay_id": 755 },
    { "id": 469, "subscriber_id": 24, "relay_id": 301 },
    { "id": 470, "subscriber_id": 787, "relay_id": 873 },
    { "id": 471, "subscriber_id": 910, "relay_id": 518 },
    { "id": 472, "subscriber_id": 280, "relay_id": 645 },
    { "id": 473, "subscriber_id": 891, "relay_id": 753 },
    { "id": 474, "subscriber_id": 294, "relay_id": 312 },
    { "id": 475, "subscriber_id": 818, "relay_id": 191 },
    { "id": 476, "subscriber_id": 659, "relay_id": 505 },
    { "id": 477, "subscriber_id": 432, "relay_id": 840 },
    { "id": 478, "subscriber_id": 928, "relay_id": 281 },
    { "id": 479, "subscriber_id": 201, "relay_id": 101 },
    { "id": 480, "subscriber_id": 680, "relay_id": 724 },
    { "id": 481, "subscriber_id": 238, "relay_id": 653 },
    { "id": 482, "subscriber_id": 221, "relay_id": 247 },
    { "id": 483, "subscriber_id": 202, "relay_id": 12 },
    { "id": 484, "subscriber_id": 561, "relay_id": 849 },
    { "id": 485, "subscriber_id": 753, "relay_id": 783 },
    { "id": 486, "subscriber_id": 910, "relay_id": 915 },
    { "id": 487, "subscriber_id": 127, "relay_id": 806 },
    { "id": 488, "subscriber_id": 689, "relay_id": 126 },
    { "id": 489, "subscriber_id": 131, "relay_id": 403 },
    { "id": 490, "subscriber_id": 556, "relay_id": 604 },
    { "id": 491, "subscriber_id": 665, "relay_id": 669 },
    { "id": 492, "subscriber_id": 299, "relay_id": 340 },
    { "id": 493, "subscriber_id": 295, "relay_id": 113 },
    { "id": 494, "subscriber_id": 999, "relay_id": 985 },
    { "id": 495, "subscriber_id": 478, "relay_id": 990 },
    { "id": 496, "subscriber_id": 252, "relay_id": 659 },
    { "id": 497, "subscriber_id": 783, "relay_id": 153 },
    { "id": 498, "subscriber_id": 878, "relay_id": 26 },
    { "id": 499, "subscriber_id": 853, "relay_id": 823 },
    { "id": 500, "subscriber_id": 1, "relay_id": 839 },
    { "id": 501, "subscriber_id": 1, "relay_id": 296 },
    { "id": 502, "subscriber_id": 1, "relay_id": 365 },
    { "id": 503, "subscriber_id": 1, "relay_id": 433 },
    { "id": 504, "subscriber_id": 1, "relay_id": 130 },
    { "id": 505, "subscriber_id": 1, "relay_id": 710 },
    { "id": 506, "subscriber_id": 1, "relay_id": 668 },
    { "id": 507, "subscriber_id": 1, "relay_id": 657 },
    { "id": 508, "subscriber_id": 1, "relay_id": 665 },
    { "id": 509, "subscriber_id": 1, "relay_id": 170 },
    { "id": 510, "subscriber_id": 1, "relay_id": 740 },
    { "id": 511, "subscriber_id": 670, "relay_id": 720 },
    { "id": 512, "subscriber_id": 758, "relay_id": 126 },
    { "id": 513, "subscriber_id": 523, "relay_id": 806 },
    { "id": 514, "subscriber_id": 209, "relay_id": 142 },
    { "id": 515, "subscriber_id": 117, "relay_id": 17 },
    { "id": 516, "subscriber_id": 499, "relay_id": 960 },
    { "id": 517, "subscriber_id": 216, "relay_id": 290 },
    { "id": 518, "subscriber_id": 77, "relay_id": 388 },
    { "id": 519, "subscriber_id": 919, "relay_id": 379 },
    { "id": 520, "subscriber_id": 395, "relay_id": 322 },
    { "id": 521, "subscriber_id": 964, "relay_id": 890 },
    { "id": 522, "subscriber_id": 179, "relay_id": 61 },
    { "id": 523, "subscriber_id": 188, "relay_id": 425 },
    { "id": 524, "subscriber_id": 268, "relay_id": 762 },
    { "id": 525, "subscriber_id": 801, "relay_id": 7 },
    { "id": 526, "subscriber_id": 329, "relay_id": 952 },
    { "id": 527, "subscriber_id": 576, "relay_id": 40 },
    { "id": 528, "subscriber_id": 815, "relay_id": 170 },
    { "id": 529, "subscriber_id": 984, "relay_id": 693 },
    { "id": 530, "subscriber_id": 408, "relay_id": 219 },
    { "id": 531, "subscriber_id": 670, "relay_id": 849 },
    { "id": 532, "subscriber_id": 722, "relay_id": 102 },
    { "id": 533, "subscriber_id": 998, "relay_id": 758 },
    { "id": 534, "subscriber_id": 922, "relay_id": 263 },
    { "id": 535, "subscriber_id": 939, "relay_id": 841 },
    { "id": 536, "subscriber_id": 234, "relay_id": 915 },
    { "id": 537, "subscriber_id": 816, "relay_id": 444 },
    { "id": 538, "subscriber_id": 269, "relay_id": 65 },
    { "id": 539, "subscriber_id": 805, "relay_id": 932 },
    { "id": 540, "subscriber_id": 641, "relay_id": 702 },
    { "id": 541, "subscriber_id": 96, "relay_id": 932 },
    { "id": 542, "subscriber_id": 359, "relay_id": 712 },
    { "id": 543, "subscriber_id": 631, "relay_id": 75 },
    { "id": 544, "subscriber_id": 835, "relay_id": 408 },
    { "id": 545, "subscriber_id": 888, "relay_id": 993 },
    { "id": 546, "subscriber_id": 811, "relay_id": 779 },
    { "id": 547, "subscriber_id": 791, "relay_id": 298 },
    { "id": 548, "subscriber_id": 302, "relay_id": 997 },
    { "id": 549, "subscriber_id": 320, "relay_id": 756 },
    { "id": 550, "subscriber_id": 262, "relay_id": 939 },
    { "id": 551, "subscriber_id": 449, "relay_id": 535 },
    { "id": 552, "subscriber_id": 857, "relay_id": 766 },
    { "id": 553, "subscriber_id": 917, "relay_id": 428 },
    { "id": 554, "subscriber_id": 893, "relay_id": 702 },
    { "id": 555, "subscriber_id": 290, "relay_id": 535 },
    { "id": 556, "subscriber_id": 353, "relay_id": 388 },
    { "id": 557, "subscriber_id": 735, "relay_id": 227 },
    { "id": 558, "subscriber_id": 880, "relay_id": 175 },
    { "id": 559, "subscriber_id": 622, "relay_id": 896 },
    { "id": 560, "subscriber_id": 19, "relay_id": 601 },
    { "id": 561, "subscriber_id": 184, "relay_id": 513 },
    { "id": 562, "subscriber_id": 426, "relay_id": 555 },
    { "id": 563, "subscriber_id": 367, "relay_id": 444 },
    { "id": 564, "subscriber_id": 287, "relay_id": 629 },
    { "id": 565, "subscriber_id": 555, "relay_id": 301 },
    { "id": 566, "subscriber_id": 850, "relay_id": 473 },
    { "id": 567, "subscriber_id": 147, "relay_id": 883 },
    { "id": 568, "subscriber_id": 483, "relay_id": 837 },
    { "id": 569, "subscriber_id": 469, "relay_id": 306 },
    { "id": 570, "subscriber_id": 256, "relay_id": 862 },
    { "id": 571, "subscriber_id": 18, "relay_id": 730 },
    { "id": 572, "subscriber_id": 15, "relay_id": 292 },
    { "id": 573, "subscriber_id": 206, "relay_id": 97 },
    { "id": 574, "subscriber_id": 185, "relay_id": 218 },
    { "id": 575, "subscriber_id": 949, "relay_id": 216 },
    { "id": 576, "subscriber_id": 32, "relay_id": 221 },
    { "id": 577, "subscriber_id": 335, "relay_id": 547 },
    { "id": 578, "subscriber_id": 597, "relay_id": 11 },
    { "id": 579, "subscriber_id": 748, "relay_id": 376 },
    { "id": 580, "subscriber_id": 790, "relay_id": 613 },
    { "id": 581, "subscriber_id": 396, "relay_id": 493 },
    { "id": 582, "subscriber_id": 217, "relay_id": 76 },
    { "id": 583, "subscriber_id": 487, "relay_id": 403 },
    { "id": 584, "subscriber_id": 888, "relay_id": 84 },
    { "id": 585, "subscriber_id": 993, "relay_id": 333 },
    { "id": 586, "subscriber_id": 684, "relay_id": 228 },
    { "id": 587, "subscriber_id": 818, "relay_id": 692 },
    { "id": 588, "subscriber_id": 927, "relay_id": 336 },
    { "id": 589, "subscriber_id": 922, "relay_id": 645 },
    { "id": 590, "subscriber_id": 959, "relay_id": 338 },
    { "id": 591, "subscriber_id": 881, "relay_id": 743 },
    { "id": 592, "subscriber_id": 7, "relay_id": 367 },
    { "id": 593, "subscriber_id": 252, "relay_id": 128 },
    { "id": 594, "subscriber_id": 195, "relay_id": 193 },
    { "id": 595, "subscriber_id": 203, "relay_id": 533 },
    { "id": 596, "subscriber_id": 844, "relay_id": 816 },
    { "id": 597, "subscriber_id": 237, "relay_id": 545 },
    { "id": 598, "subscriber_id": 924, "relay_id": 124 },
    { "id": 599, "subscriber_id": 181, "relay_id": 422 },
    { "id": 600, "subscriber_id": 1, "relay_id": 440 },
    { "id": 601, "subscriber_id": 1, "relay_id": 85 },
    { "id": 602, "subscriber_id": 1, "relay_id": 752 },
    { "id": 603, "subscriber_id": 1, "relay_id": 235 },
    { "id": 604, "subscriber_id": 1, "relay_id": 139 },
    { "id": 605, "subscriber_id": 1, "relay_id": 852 },
    { "id": 606, "subscriber_id": 1, "relay_id": 816 },
    { "id": 607, "subscriber_id": 1, "relay_id": 243 },
    { "id": 608, "subscriber_id": 1, "relay_id": 665 },
    { "id": 609, "subscriber_id": 1, "relay_id": 744 },
    { "id": 610, "subscriber_id": 1, "relay_id": 821 },
    { "id": 611, "subscriber_id": 377, "relay_id": 934 },
    { "id": 612, "subscriber_id": 262, "relay_id": 519 },
    { "id": 613, "subscriber_id": 660, "relay_id": 381 },
    { "id": 614, "subscriber_id": 302, "relay_id": 676 },
    { "id": 615, "subscriber_id": 231, "relay_id": 400 },
    { "id": 616, "subscriber_id": 286, "relay_id": 625 },
    { "id": 617, "subscriber_id": 521, "relay_id": 951 },
    { "id": 618, "subscriber_id": 17, "relay_id": 384 },
    { "id": 619, "subscriber_id": 796, "relay_id": 592 },
    { "id": 620, "subscriber_id": 341, "relay_id": 740 },
    { "id": 621, "subscriber_id": 493, "relay_id": 641 },
    { "id": 622, "subscriber_id": 845, "relay_id": 768 },
    { "id": 623, "subscriber_id": 630, "relay_id": 961 },
    { "id": 624, "subscriber_id": 914, "relay_id": 159 },
    { "id": 625, "subscriber_id": 646, "relay_id": 613 },
    { "id": 626, "subscriber_id": 86, "relay_id": 431 },
    { "id": 627, "subscriber_id": 616, "relay_id": 356 },
    { "id": 628, "subscriber_id": 682, "relay_id": 902 },
    { "id": 629, "subscriber_id": 270, "relay_id": 959 },
    { "id": 630, "subscriber_id": 811, "relay_id": 465 },
    { "id": 631, "subscriber_id": 880, "relay_id": 26 },
    { "id": 632, "subscriber_id": 592, "relay_id": 554 },
    { "id": 633, "subscriber_id": 914, "relay_id": 289 },
    { "id": 634, "subscriber_id": 628, "relay_id": 715 },
    { "id": 635, "subscriber_id": 338, "relay_id": 747 },
    { "id": 636, "subscriber_id": 855, "relay_id": 266 },
    { "id": 637, "subscriber_id": 917, "relay_id": 776 },
    { "id": 638, "subscriber_id": 34, "relay_id": 905 },
    { "id": 639, "subscriber_id": 902, "relay_id": 556 },
    { "id": 640, "subscriber_id": 229, "relay_id": 962 },
    { "id": 641, "subscriber_id": 118, "relay_id": 34 },
    { "id": 642, "subscriber_id": 344, "relay_id": 44 },
    { "id": 643, "subscriber_id": 625, "relay_id": 806 },
    { "id": 644, "subscriber_id": 751, "relay_id": 916 },
    { "id": 645, "subscriber_id": 247, "relay_id": 874 },
    { "id": 646, "subscriber_id": 149, "relay_id": 654 },
    { "id": 647, "subscriber_id": 783, "relay_id": 120 },
    { "id": 648, "subscriber_id": 693, "relay_id": 265 },
    { "id": 649, "subscriber_id": 979, "relay_id": 623 },
    { "id": 650, "subscriber_id": 436, "relay_id": 560 },
    { "id": 651, "subscriber_id": 765, "relay_id": 785 },
    { "id": 652, "subscriber_id": 687, "relay_id": 181 },
    { "id": 653, "subscriber_id": 310, "relay_id": 292 },
    { "id": 654, "subscriber_id": 534, "relay_id": 562 },
    { "id": 655, "subscriber_id": 935, "relay_id": 479 },
    { "id": 656, "subscriber_id": 290, "relay_id": 497 },
    { "id": 657, "subscriber_id": 517, "relay_id": 376 },
    { "id": 658, "subscriber_id": 708, "relay_id": 594 },
    { "id": 659, "subscriber_id": 16, "relay_id": 705 },
    { "id": 660, "subscriber_id": 364, "relay_id": 27 },
    { "id": 661, "subscriber_id": 386, "relay_id": 577 },
    { "id": 662, "subscriber_id": 850, "relay_id": 96 },
    { "id": 663, "subscriber_id": 589, "relay_id": 182 },
    { "id": 664, "subscriber_id": 255, "relay_id": 622 },
    { "id": 665, "subscriber_id": 226, "relay_id": 861 },
    { "id": 666, "subscriber_id": 886, "relay_id": 495 },
    { "id": 667, "subscriber_id": 748, "relay_id": 908 },
    { "id": 668, "subscriber_id": 887, "relay_id": 426 },
    { "id": 669, "subscriber_id": 510, "relay_id": 471 },
    { "id": 670, "subscriber_id": 36, "relay_id": 662 },
    { "id": 671, "subscriber_id": 58, "relay_id": 957 },
    { "id": 672, "subscriber_id": 293, "relay_id": 147 },
    { "id": 673, "subscriber_id": 926, "relay_id": 606 },
    { "id": 674, "subscriber_id": 970, "relay_id": 23 },
    { "id": 675, "subscriber_id": 83, "relay_id": 76 },
    { "id": 676, "subscriber_id": 821, "relay_id": 833 },
    { "id": 677, "subscriber_id": 786, "relay_id": 821 },
    { "id": 678, "subscriber_id": 647, "relay_id": 324 },
    { "id": 679, "subscriber_id": 437, "relay_id": 956 },
    { "id": 680, "subscriber_id": 613, "relay_id": 763 },
    { "id": 681, "subscriber_id": 570, "relay_id": 44 },
    { "id": 682, "subscriber_id": 747, "relay_id": 368 },
    { "id": 683, "subscriber_id": 953, "relay_id": 65 },
    { "id": 684, "subscriber_id": 354, "relay_id": 258 },
    { "id": 685, "subscriber_id": 763, "relay_id": 476 },
    { "id": 686, "subscriber_id": 947, "relay_id": 2 },
    { "id": 687, "subscriber_id": 554, "relay_id": 391 },
    { "id": 688, "subscriber_id": 533, "relay_id": 987 },
    { "id": 689, "subscriber_id": 482, "relay_id": 50 },
    { "id": 690, "subscriber_id": 858, "relay_id": 937 },
    { "id": 691, "subscriber_id": 43, "relay_id": 408 },
    { "id": 692, "subscriber_id": 445, "relay_id": 382 },
    { "id": 693, "subscriber_id": 882, "relay_id": 186 },
    { "id": 694, "subscriber_id": 768, "relay_id": 779 },
    { "id": 695, "subscriber_id": 403, "relay_id": 720 },
    { "id": 696, "subscriber_id": 820, "relay_id": 140 },
    { "id": 697, "subscriber_id": 813, "relay_id": 122 },
    { "id": 698, "subscriber_id": 224, "relay_id": 597 },
    { "id": 699, "subscriber_id": 59, "relay_id": 389 },
    { "id": 700, "subscriber_id": 1, "relay_id": 287 },
    { "id": 701, "subscriber_id": 1, "relay_id": 704 },
    { "id": 702, "subscriber_id": 1, "relay_id": 962 },
    { "id": 703, "subscriber_id": 1, "relay_id": 206 },
    { "id": 704, "subscriber_id": 1, "relay_id": 990 },
    { "id": 705, "subscriber_id": 1, "relay_id": 168 },
    { "id": 706, "subscriber_id": 1, "relay_id": 423 },
    { "id": 707, "subscriber_id": 1, "relay_id": 377 },
    { "id": 708, "subscriber_id": 1, "relay_id": 358 },
    { "id": 709, "subscriber_id": 1, "relay_id": 702 },
    { "id": 710, "subscriber_id": 1, "relay_id": 602 },
    { "id": 711, "subscriber_id": 682, "relay_id": 227 },
    { "id": 712, "subscriber_id": 388, "relay_id": 853 },
    { "id": 713, "subscriber_id": 552, "relay_id": 66 },
    { "id": 714, "subscriber_id": 799, "relay_id": 503 },
    { "id": 715, "subscriber_id": 354, "relay_id": 592 },
    { "id": 716, "subscriber_id": 494, "relay_id": 840 },
    { "id": 717, "subscriber_id": 418, "relay_id": 783 },
    { "id": 718, "subscriber_id": 770, "relay_id": 935 },
    { "id": 719, "subscriber_id": 440, "relay_id": 511 },
    { "id": 720, "subscriber_id": 725, "relay_id": 665 },
    { "id": 721, "subscriber_id": 189, "relay_id": 16 },
    { "id": 722, "subscriber_id": 936, "relay_id": 624 },
    { "id": 723, "subscriber_id": 458, "relay_id": 211 },
    { "id": 724, "subscriber_id": 112, "relay_id": 990 },
    { "id": 725, "subscriber_id": 735, "relay_id": 607 },
    { "id": 726, "subscriber_id": 179, "relay_id": 633 },
    { "id": 727, "subscriber_id": 854, "relay_id": 923 },
    { "id": 728, "subscriber_id": 309, "relay_id": 544 },
    { "id": 729, "subscriber_id": 820, "relay_id": 686 },
    { "id": 730, "subscriber_id": 212, "relay_id": 112 },
    { "id": 731, "subscriber_id": 298, "relay_id": 772 },
    { "id": 732, "subscriber_id": 324, "relay_id": 614 },
    { "id": 733, "subscriber_id": 155, "relay_id": 321 },
    { "id": 734, "subscriber_id": 144, "relay_id": 375 },
    { "id": 735, "subscriber_id": 554, "relay_id": 452 },
    { "id": 736, "subscriber_id": 87, "relay_id": 639 },
    { "id": 737, "subscriber_id": 571, "relay_id": 250 },
    { "id": 738, "subscriber_id": 79, "relay_id": 247 },
    { "id": 739, "subscriber_id": 18, "relay_id": 116 },
    { "id": 740, "subscriber_id": 703, "relay_id": 450 },
    { "id": 741, "subscriber_id": 600, "relay_id": 651 },
    { "id": 742, "subscriber_id": 513, "relay_id": 85 },
    { "id": 743, "subscriber_id": 726, "relay_id": 774 },
    { "id": 744, "subscriber_id": 645, "relay_id": 76 },
    { "id": 745, "subscriber_id": 586, "relay_id": 76 },
    { "id": 746, "subscriber_id": 21, "relay_id": 907 },
    { "id": 747, "subscriber_id": 373, "relay_id": 393 },
    { "id": 748, "subscriber_id": 445, "relay_id": 120 },
    { "id": 749, "subscriber_id": 393, "relay_id": 353 },
    { "id": 750, "subscriber_id": 500, "relay_id": 289 },
    { "id": 751, "subscriber_id": 462, "relay_id": 679 },
    { "id": 752, "subscriber_id": 215, "relay_id": 821 },
    { "id": 753, "subscriber_id": 388, "relay_id": 502 },
    { "id": 754, "subscriber_id": 689, "relay_id": 883 },
    { "id": 755, "subscriber_id": 166, "relay_id": 576 },
    { "id": 756, "subscriber_id": 345, "relay_id": 293 },
    { "id": 757, "subscriber_id": 852, "relay_id": 942 },
    { "id": 758, "subscriber_id": 146, "relay_id": 310 },
    { "id": 759, "subscriber_id": 36, "relay_id": 62 },
    { "id": 760, "subscriber_id": 230, "relay_id": 309 },
    { "id": 761, "subscriber_id": 345, "relay_id": 725 },
    { "id": 762, "subscriber_id": 715, "relay_id": 453 },
    { "id": 763, "subscriber_id": 327, "relay_id": 300 },
    { "id": 764, "subscriber_id": 408, "relay_id": 968 },
    { "id": 765, "subscriber_id": 695, "relay_id": 77 },
    { "id": 766, "subscriber_id": 49, "relay_id": 346 },
    { "id": 767, "subscriber_id": 737, "relay_id": 571 },
    { "id": 768, "subscriber_id": 579, "relay_id": 173 },
    { "id": 769, "subscriber_id": 228, "relay_id": 480 },
    { "id": 770, "subscriber_id": 745, "relay_id": 801 },
    { "id": 771, "subscriber_id": 841, "relay_id": 835 },
    { "id": 772, "subscriber_id": 64, "relay_id": 176 },
    { "id": 773, "subscriber_id": 730, "relay_id": 856 },
    { "id": 774, "subscriber_id": 983, "relay_id": 418 },
    { "id": 775, "subscriber_id": 461, "relay_id": 916 },
    { "id": 776, "subscriber_id": 892, "relay_id": 153 },
    { "id": 777, "subscriber_id": 93, "relay_id": 698 },
    { "id": 778, "subscriber_id": 33, "relay_id": 526 },
    { "id": 779, "subscriber_id": 23, "relay_id": 4 },
    { "id": 780, "subscriber_id": 539, "relay_id": 798 },
    { "id": 781, "subscriber_id": 712, "relay_id": 733 },
    { "id": 782, "subscriber_id": 115, "relay_id": 96 },
    { "id": 783, "subscriber_id": 205, "relay_id": 626 },
    { "id": 784, "subscriber_id": 103, "relay_id": 27 },
    { "id": 785, "subscriber_id": 996, "relay_id": 540 },
    { "id": 786, "subscriber_id": 196, "relay_id": 80 },
    { "id": 787, "subscriber_id": 567, "relay_id": 61 },
    { "id": 788, "subscriber_id": 928, "relay_id": 727 },
    { "id": 789, "subscriber_id": 504, "relay_id": 69 },
    { "id": 790, "subscriber_id": 547, "relay_id": 455 },
    { "id": 791, "subscriber_id": 801, "relay_id": 211 },
    { "id": 792, "subscriber_id": 731, "relay_id": 558 },
    { "id": 793, "subscriber_id": 954, "relay_id": 196 },
    { "id": 794, "subscriber_id": 379, "relay_id": 424 },
    { "id": 795, "subscriber_id": 36, "relay_id": 477 },
    { "id": 796, "subscriber_id": 66, "relay_id": 86 },
    { "id": 797, "subscriber_id": 420, "relay_id": 449 },
    { "id": 798, "subscriber_id": 616, "relay_id": 934 },
    { "id": 799, "subscriber_id": 952, "relay_id": 271 }
  ]
}
